main
   load config (seperate initialize file/folder?)
   execute process
      find files to process
      normalize names
      build list of destination file names
         write destination files
            process source files
            get pub date              
            generate XML
            create output file
               open file
               write file
               close file
            return result
         record result
      report results
         display to console
         write output log (unit testing)
   tear down

so:

fileIO = strPath 'C:/' + pubDate.toString() + '.xml'

for article in files:
   fileWriter = IOobj -> fopen(strPath, 'w')
   fileWriter -> putLine('hi, I was written on' + SYSDATE.toString);
                        MARCXMLObject.toString()
   fileWriter.close()
end